vcd/debug_vga_01.vcd
$date
        2018-Feb-27 17:17:58
$end
$version
        Vivado v2017.4 (64-bit)
$end
$timescale
        1ps
$end
$scope module dut $end
$var reg 8 " Resolution1024x768xG.HdmixI/VgaxI/DebugRedxD [7:0] $end
$var reg 8 * Resolution1024x768xG.HdmixI/VgaxI/DebugGreenxD [7:0] $end
$var reg 8 2 Resolution1024x768xG.HdmixI/VgaxI/DebugBluexD [7:0] $end
$var reg 16 : Resolution1024x768xG.HdmixI/VgaxI/VgaControlerxI/VCountxD [15:0] $end
$var reg 16 J Resolution1024x768xG.HdmixI/VgaxI/VgaControlerxI/HCountxD [15:0] $end
$var reg 10 Z Resolution1024x768xG.HdmixI/VgaToHdmixI/TmdsEncodedDataSymbolCh0xD [9:0] $end
$var reg 10 d Resolution1024x768xG.HdmixI/VgaToHdmixI/TmdsEncodedDataSymbolCh1xD [9:0] $end
$var reg 10 n Resolution1024x768xG.HdmixI/VgaToHdmixI/TmdsEncodedDataSymbolCh2xD [9:0] $end
$var reg 10 x Resolution1024x768xG.HdmixI/VgaToHdmixI/TmdsEncodedDataSymbolClkxD [9:0] $end
$var reg 1 $" Resolution1024x768xG.HdmixI/VgaxI/VgaControlerxI/DebugHSyncxS $end
$var reg 1 %" Resolution1024x768xG.HdmixI/VgaxI/VgaControlerxI/DebugVSyncxS $end
$var reg 1 &" Resolution1024x768xG.HdmixI/VgaxI/VgaControlerxI/VidOnxS $end
$var reg 1 '" _TRIGGER $end
$var reg 1 (" _WINDOW $end
$var reg 1 )" _GAP $end
$upscope $end
$enddefinitions $end
#0
$dumpvars
b11100000 "
b0 *
b0 2
b11011111 :
b1111111100 J
b100000000 Z
b100000000 d
b110100000 n
b11111 x
0$"
0%"
1&"
0'"
1("
0)"
$end
#1
b1111111101 J
b1111111111 Z
b1111111111 d
b1101011111 n
#2
b1111111110 J
b100000000 Z
b100000000 d
b110100000 n
#3
b1111111111 J
b1111111111 Z
b1111111111 d
#4
b10000000000 J
b100000000 Z
b100000000 d
b1101011111 n
#5
b0 "
b10000000001 J
b1111111111 Z
b1111111111 d
b110100000 n
0&"
#6
b10000000010 J
b1101010100 Z
b1101010100 d
b1101010100 n
#7
b10000000011 J
#8
b10000000100 J
#9
b10000000101 J
#10
b10000000110 J
#11
b10000000111 J
#12
b10000001000 J
#13
b10000001001 J
#14
b10000001010 J
#15
b10000001011 J
#16
b10000001100 J
#17
b10000001101 J
#18
b10000001110 J
#19
b10000001111 J
#20
b10000010000 J
#21
b10000010001 J
#22
b10000010010 J
#23
b10000010011 J
#24
b10000010100 J
#25
b10000010101 J
#26
b10000010110 J
#27
b10000010111 J
#28
b10000011000 J
#29
b10000011001 J
#30
b10000011010 J
#31
b10000011011 J
#32
b10000011100 J
#33
b10000011101 J
#34
b10000011110 J
#35
b10000011111 J
#36
b10000100000 J
#37
b10000100001 J
#38
b10000100010 J
#39
b10000100011 J
#40
b10000100100 J
#41
b10000100101 J
#42
b10000100110 J
#43
b10000100111 J
#44
b10000101000 J
#45
b10000101001 J
#46
b10000101010 J
#47
b10000101011 J
#48
b10000101100 J
#49
b10000101101 J
#50
b10000101110 J
#51
b10000101111 J
#52
b10000110000 J
#53
b10000110001 J
#54
b10000110010 J
#55
b10000110011 J
#56
b10000110100 J
#57
b10000110101 J
#58
b10000110110 J
#59
b10000110111 J
#60
b10000111000 J
#61
b10000111001 J
#62
b10000111010 J
#63
b10000111011 J
#64
b10000111100 J
#65
b10000111101 J
#66
b10000111110 J
#67
b10000111111 J
#68
b10001000000 J
#69
b10001000001 J
#70
b10001000010 J
#71
b10001000011 J
#72
b10001000100 J
#73
b10001000101 J
#74
b10001000110 J
#75
b10001000111 J
#76
b10001001000 J
#77
b10001001001 J
#78
b10001001010 J
#79
b10001001011 J
#80
b10001001100 J
#81
b10001001101 J
#82
b10001001110 J
#83
b10001001111 J
#84
b10001010000 J
#85
b10001010001 J
#86
b10001010010 J
#87
b10001010011 J
#88
b10001010100 J
#89
b10001010101 J
#90
b10001010110 J
#91
b10001010111 J
#92
b10001011000 J
#93
b10001011001 J
#94
b10001011010 J
#95
b10001011011 J
#96
b10001011100 J
#97
b10001011101 J
#98
b10001011110 J
#99
b10001011111 J
#100
b10001100000 J
#101
b10001100001 J
#102
b10001100010 J
#103
b10001100011 J
#104
b10001100100 J
#105
b10001100101 J
#106
b10001100110 J
#107
b10001100111 J
#108
b10001101000 J
#109
b10001101001 J
#110
b10001101010 J
#111
b10001101011 J
#112
b10001101100 J
#113
b10001101101 J
#114
b10001101110 J
#115
b10001101111 J
#116
b10001110000 J
#117
b10001110001 J
#118
b10001110010 J
#119
b10001110011 J
#120
b10001110100 J
#121
b10001110101 J
#122
b10001110110 J
#123
b10001110111 J
#124
b10001111000 J
#125
b10001111001 J
#126
b10001111010 J
#127
b10001111011 J
#128
b10001111100 J
#129
b10001111101 J
#130
b10001111110 J
#131
b10001111111 J
#132
b10010000000 J
#133
b10010000001 J
#134
b10010000010 J
#135
b10010000011 J
#136
b10010000100 J
#137
b10010000101 J
#138
b10010000110 J
#139
b10010000111 J
#140
b10010001000 J
#141
b10010001001 J
#142
b10010001010 J
#143
b10010001011 J
#144
b10010001100 J
#145
b10010001101 J
#146
b10010001110 J
#147
b10010001111 J
#148
b10010010000 J
#149
b10010010001 J
#150
b10010010010 J
#151
b10010010011 J
#152
b10010010100 J
#153
b10010010101 J
#154
b10010010110 J
#155
b10010010111 J
#156
b10010011000 J
#157
b10010011001 J
#158
b10010011010 J
#159
b10010011011 J
#160
b10010011100 J
#161
b10010011101 J
#162
b10010011110 J
#163
b10010011111 J
#164
b10010100000 J
1$"
#165
b10010100001 J
b10101011 Z
#166
b10010100010 J
#167
b10010100011 J
#168
b10010100100 J
#169
b10010100101 J
#170
b10010100110 J
#171
b10010100111 J
#172
b10010101000 J
#173
b10010101001 J
#174
b10010101010 J
#175
b10010101011 J
#176
b10010101100 J
#177
b10010101101 J
#178
b10010101110 J
#179
b10010101111 J
#180
b10010110000 J
#181
b10010110001 J
#182
b10010110010 J
#183
b10010110011 J
#184
b10010110100 J
0$"
#185
b10010110101 J
b1101010100 Z
#186
b10010110110 J
#187
b10010110111 J
#188
b10010111000 J
#189
b10010111001 J
#190
b10010111010 J
#191
b10010111011 J
#192
b10010111100 J
#193
b10010111101 J
#194
b10010111110 J
#195
b10010111111 J
#196
b10011000000 J
#197
b10011000001 J
#198
b10011000010 J
#199
b10011000011 J
#200
b10011000100 J
#201
b10011000101 J
#202
b10011000110 J
#203
b10011000111 J
#204
b10011001000 J
#205
b10011001001 J
#206
b10011001010 J
#207
b10011001011 J
#208
b10011001100 J
#209
b10011001101 J
#210
b10011001110 J
#211
b10011001111 J
#212
b10011010000 J
#213
b10011010001 J
#214
b10011010010 J
#215
b10011010011 J
#216
b10011010100 J
#217
b10011010101 J
#218
b10011010110 J
#219
b10011010111 J
#220
b10011011000 J
#221
b10011011001 J
#222
b10011011010 J
#223
b10011011011 J
#224
b10011011100 J
#225
b10011011101 J
#226
b10011011110 J
#227
b10011011111 J
#228
b10011100000 J
#229
b10011100001 J
#230
b10011100010 J
#231
b10011100011 J
#232
b10011100100 J
#233
b10011100101 J
#234
b10011100110 J
#235
b10011100111 J
#236
b10011101000 J
#237
b10011101001 J
#238
b10011101010 J
#239
b10011101011 J
#240
b10011101100 J
#241
b10011101101 J
#242
b10011101110 J
#243
b10011101111 J
#244
b10011110000 J
#245
b10011110001 J
#246
b10011110010 J
#247
b10011110011 J
#248
b10011110100 J
#249
b10011110101 J
#250
b10011110110 J
#251
b10011110111 J
#252
b10011111000 J
#253
b10011111001 J
#254
b10011111010 J
#255
b10011111011 J
#256
b10011111100 J
#257
b10011111101 J
#258
b10011111110 J
#259
b10011111111 J
#260
b10100000000 J
#261
b10100000001 J
#262
b10100000010 J
#263
b10100000011 J
#264
b10100000100 J
#265
b10100000101 J
#266
b10100000110 J
#267
b10100000111 J
#268
b10100001000 J
#269
b10100001001 J
#270
b10100001010 J
#271
b10100001011 J
#272
b10100001100 J
#273
b10100001101 J
#274
b10100001110 J
#275
b10100001111 J
#276
b10100010000 J
#277
b10100010001 J
#278
b10100010010 J
#279
b10100010011 J
#280
b10100010100 J
#281
b10100010101 J
#282
b10100010110 J
#283
b10100010111 J
#284
b10100011000 J
#285
b10100011001 J
#286
b10100011010 J
#287
b10100011011 J
#288
b10100011100 J
#289
b10100011101 J
#290
b10100011110 J
#291
b10100011111 J
#292
b10100100000 J
#293
b10100100001 J
#294
b10100100010 J
#295
b10100100011 J
#296
b10100100100 J
#297
b10100100101 J
#298
b10100100110 J
#299
b10100100111 J
#300
b10100101000 J
#301
b10100101001 J
#302
b10100101010 J
#303
b10100101011 J
#304
b10100101100 J
#305
b10100101101 J
#306
b10100101110 J
#307
b10100101111 J
#308
b10100110000 J
#309
b10100110001 J
#310
b10100110010 J
#311
b10100110011 J
#312
b10100110100 J
#313
b10100110101 J
#314
b10100110110 J
#315
b10100110111 J
#316
b10100111000 J
#317
b10100111001 J
#318
b10100111010 J
#319
b10100111011 J
#320
b10100111100 J
#321
b10100111101 J
#322
b10100111110 J
#323
b10100111111 J
#324
b11100000 :
b0 J
1&"
#325
b1 J
b100000000 Z
b100000000 d
b100000000 n
#326
b11100000 *
b10 J
b1111111111 Z
b1111111111 d
b1111111111 n
#327
b11 J
b100000000 Z
b110100000 d
b100000000 n
#328
b100 J
b1111111111 Z
b1101011111 d
b1111111111 n
#329
b101 J
b100000000 Z
b110100000 d
b100000000 n
#330
b110 J
b1111111111 Z
b1111111111 n
#331
b111 J
b100000000 Z
b1101011111 d
b100000000 n
#332
b1000 J
b1111111111 Z
b110100000 d
b1111111111 n
#333
b1001 J
b100000000 Z
b1101011111 d
b100000000 n
#334
b1010 J
b110100000 d
#335
b1011 J
b1111111111 Z
b1111111111 n
#336
b1100 J
b100000000 Z
b1101011111 d
b100000000 n
#337
b1101 J
b1111111111 Z
b110100000 d
b1111111111 n
#338
b1110 J
b100000000 Z
b1101011111 d
b100000000 n
#339
b1111 J
b1111111111 Z
b110100000 d
b1111111111 n
#340
b10000 J
b100000000 Z
b100000000 n
#341
b10001 J
b1111111111 Z
b1101011111 d
b1111111111 n
#342
b10010 J
b100000000 Z
b110100000 d
b100000000 n
#343
b10011 J
b1101011111 d
#344
b10100 J
b1111111111 Z
b110100000 d
b1111111111 n
#345
b10101 J
b100000000 Z
b100000000 n
#346
b10110 J
b1111111111 Z
b1101011111 d
b1111111111 n
#347
b10111 J
b100000000 Z
b110100000 d
b100000000 n
#348
b11000 J
b1111111111 Z
b1101011111 d
b1111111111 n
#349
b11001 J
b100000000 Z
b110100000 d
b100000000 n
#350
b11010 J
b1111111111 Z
b1111111111 n
#351
b11011 J
b100000000 Z
b1101011111 d
b100000000 n
#352
b11100 J
b110100000 d
#353
b11101 J
b1111111111 Z
b1101011111 d
b1111111111 n
#354
b11110 J
b100000000 Z
b110100000 d
b100000000 n
#355
b11111 J
b1111111111 Z
b1111111111 n
#356
b100000 J
b100000000 Z
b1101011111 d
b100000000 n
#357
b100001 J
b1111111111 Z
b110100000 d
b1111111111 n
#358
b100010 J
b100000000 Z
b1101011111 d
b100000000 n
#359
b100011 J
b1111111111 Z
b110100000 d
b1111111111 n
#360
b100100 J
b100000000 Z
b100000000 n
#361
b100101 J
b1101011111 d
#362
b100110 J
b1111111111 Z
b110100000 d
b1111111111 n
#363
b100111 J
b100000000 Z
b1101011111 d
b100000000 n
#364
b101000 J
b1111111111 Z
b110100000 d
b1111111111 n
#365
b101001 J
b100000000 Z
b100000000 n
#366
b101010 J
b1111111111 Z
b1101011111 d
b1111111111 n
#367
b101011 J
b100000000 Z
b110100000 d
b100000000 n
#368
b101100 J
b1111111111 Z
b1101011111 d
b1111111111 n
#369
b101101 J
b100000000 Z
b110100000 d
b100000000 n
#370
b101110 J
#371
b101111 J
b1111111111 Z
b1101011111 d
b1111111111 n
#372
b110000 J
b100000000 Z
b110100000 d
b100000000 n
#373
b110001 J
b1111111111 Z
b1101011111 d
b1111111111 n
#374
b110010 J
b100000000 Z
b110100000 d
b100000000 n
#375
b110011 J
b1111111111 Z
b1111111111 n
#376
b110100 J
b100000000 Z
b1101011111 d
b100000000 n
#377
b110101 J
b1111111111 Z
b110100000 d
b1111111111 n
#378
b110110 J
b100000000 Z
b1101011111 d
b100000000 n
#379
b110111 J
b110100000 d
#380
b111000 J
b1111111111 Z
b1111111111 n
#381
b111001 J
b100000000 Z
b1101011111 d
b100000000 n
#382
b111010 J
b1111111111 Z
b110100000 d
b1111111111 n
#383
b111011 J
b100000000 Z
b1101011111 d
b100000000 n
#384
b111100 J
b1111111111 Z
b110100000 d
b1111111111 n
#385
b111101 J
b100000000 Z
b100000000 n
#386
b111110 J
b1111111111 Z
b1101011111 d
b1111111111 n
#387
b111111 J
b100000000 Z
b110100000 d
b100000000 n
#388
b1000000 J
b1101011111 d
#389
b1000001 J
b1111111111 Z
b110100000 d
b1111111111 n
#390
b1000010 J
b100000000 Z
b100000000 n
#391
b1000011 J
b1111111111 Z
b1101011111 d
b1111111111 n
#392
b1000100 J
b100000000 Z
b110100000 d
b100000000 n
#393
b1000101 J
b1111111111 Z
b1101011111 d
b1111111111 n
#394
b1000110 J
b100000000 Z
b110100000 d
b100000000 n
#395
b1000111 J
b1111111111 Z
b1111111111 n
#396
b1001000 J
b100000000 Z
b1101011111 d
b100000000 n
#397
b1001001 J
b110100000 d
#398
b1001010 J
b1111111111 Z
b1101011111 d
b1111111111 n
#399
b1001011 J
b100000000 Z
b110100000 d
b100000000 n
#400
b1001100 J
b1111111111 Z
b1111111111 n
#401
b1001101 J
b100000000 Z
b1101011111 d
b100000000 n
#402
b1001110 J
b1111111111 Z
b110100000 d
b1111111111 n
#403
b1001111 J
b100000000 Z
b1101011111 d
b100000000 n
#404
b1010000 J
b1111111111 Z
b110100000 d
b1111111111 n
#405
b1010001 J
b100000000 Z
b100000000 n
#406
b1010010 J
b1101011111 d
#407
b1010011 J
b1111111111 Z
b110100000 d
b1111111111 n
#408
b1010100 J
b100000000 Z
b1101011111 d
b100000000 n
#409
b1010101 J
b1111111111 Z
b110100000 d
b1111111111 n
#410
b1010110 J
b100000000 Z
b100000000 n
#411
b1010111 J
b1111111111 Z
b1101011111 d
b1111111111 n
#412
b1011000 J
b100000000 Z
b110100000 d
b100000000 n
#413
b1011001 J
b1111111111 Z
b1101011111 d
b1111111111 n
#414
b1011010 J
b100000000 Z
b110100000 d
b100000000 n
#415
b1011011 J
#416
b1011100 J
b1111111111 Z
b1101011111 d
b1111111111 n
#417
b1011101 J
b100000000 Z
b110100000 d
b100000000 n
#418
b1011110 J
b1111111111 Z
b1101011111 d
b1111111111 n
#419
b1011111 J
b100000000 Z
b110100000 d
b100000000 n
#420
b1100000 J
b1111111111 Z
b1111111111 n
#421
b1100001 J
b100000000 Z
b1101011111 d
b100000000 n
#422
b1100010 J
b1111111111 Z
b110100000 d
b1111111111 n
#423
b1100011 J
b100000000 Z
b1101011111 d
b100000000 n
#424
b1100100 J
b110100000 d
#425
b1100101 J
b1111111111 Z
b1111111111 n
#426
b1100110 J
b100000000 Z
b1101011111 d
b100000000 n
#427
b1100111 J
b1111111111 Z
b110100000 d
b1111111111 n
#428
b1101000 J
b100000000 Z
b1101011111 d
b100000000 n
#429
b1101001 J
b1111111111 Z
b110100000 d
b1111111111 n
#430
b1101010 J
b100000000 Z
b100000000 n
#431
b1101011 J
b1111111111 Z
b1101011111 d
b1111111111 n
#432
b1101100 J
b100000000 Z
b110100000 d
b100000000 n
#433
b1101101 J
b1101011111 d
#434
b1101110 J
b1111111111 Z
b110100000 d
b1111111111 n
#435
b1101111 J
b100000000 Z
b100000000 n
#436
b1110000 J
b1111111111 Z
b1101011111 d
b1111111111 n
#437
b1110001 J
b100000000 Z
b110100000 d
b100000000 n
#438
b1110010 J
b1111111111 Z
b1101011111 d
b1111111111 n
#439
b1110011 J
b100000000 Z
b110100000 d
b100000000 n
#440
b1110100 J
b1111111111 Z
b1111111111 n
#441
b1110101 J
b100000000 Z
b1101011111 d
b100000000 n
#442
b1110110 J
b110100000 d
#443
b1110111 J
b1111111111 Z
b1101011111 d
b1111111111 n
#444
b1111000 J
b100000000 Z
b110100000 d
b100000000 n
#445
b1111001 J
b1111111111 Z
b1111111111 n
#446
b1111010 J
b100000000 Z
b1101011111 d
b100000000 n
#447
b1111011 J
b1111111111 Z
b110100000 d
b1111111111 n
#448
b1111100 J
b100000000 Z
b1101011111 d
b100000000 n
#449
b1111101 J
b1111111111 Z
b110100000 d
b1111111111 n
#450
b1111110 J
b100000000 Z
b100000000 n
#451
b1111111 J
b1101011111 d
#452
b10000000 J
b1111111111 Z
b110100000 d
b1111111111 n
#453
b10000001 J
b100000000 Z
b1101011111 d
b100000000 n
#454
b10000010 J
b1111111111 Z
b110100000 d
b1111111111 n
#455
b10000011 J
b100000000 Z
b100000000 n
#456
b10000100 J
b1111111111 Z
b1101011111 d
b1111111111 n
#457
b10000101 J
b100000000 Z
b110100000 d
b100000000 n
#458
b10000110 J
b1111111111 Z
b1101011111 d
b1111111111 n
#459
b10000111 J
b100000000 Z
b110100000 d
b100000000 n
#460
b10001000 J
#461
b10001001 J
b1111111111 Z
b1101011111 d
b1111111111 n
#462
b10001010 J
b100000000 Z
b110100000 d
b100000000 n
#463
b10001011 J
b1111111111 Z
b1101011111 d
b1111111111 n
#464
b10001100 J
b100000000 Z
b110100000 d
b100000000 n
#465
b10001101 J
b1111111111 Z
b1111111111 n
#466
b10001110 J
b100000000 Z
b1101011111 d
b100000000 n
#467
b10001111 J
b1111111111 Z
b110100000 d
b1111111111 n
#468
b10010000 J
b100000000 Z
b1101011111 d
b100000000 n
#469
b10010001 J
b110100000 d
#470
b10010010 J
b1111111111 Z
b1111111111 n
#471
b10010011 J
b100000000 Z
b1101011111 d
b100000000 n
#472
b10010100 J
b1111111111 Z
b110100000 d
b1111111111 n
#473
b10010101 J
b100000000 Z
b1101011111 d
b100000000 n
#474
b10010110 J
b1111111111 Z
b110100000 d
b1111111111 n
#475
b10010111 J
b100000000 Z
b100000000 n
#476
b10011000 J
b1111111111 Z
b1101011111 d
b1111111111 n
#477
b10011001 J
b100000000 Z
b110100000 d
b100000000 n
#478
b10011010 J
b1101011111 d
#479
b10011011 J
b1111111111 Z
b110100000 d
b1111111111 n
#480
b10011100 J
b100000000 Z
b100000000 n
#481
b10011101 J
b1111111111 Z
b1101011111 d
b1111111111 n
#482
b10011110 J
b100000000 Z
b110100000 d
b100000000 n
#483
b10011111 J
b1111111111 Z
b1101011111 d
b1111111111 n
#484
b10100000 J
b100000000 Z
b110100000 d
b100000000 n
#485
b10100001 J
b1111111111 Z
b1111111111 n
#486
b10100010 J
b100000000 Z
b1101011111 d
b100000000 n
#487
b10100011 J
b110100000 d
#488
b10100100 J
b1111111111 Z
b1101011111 d
b1111111111 n
#489
b10100101 J
b100000000 Z
b110100000 d
b100000000 n
#490
b10100110 J
b1111111111 Z
b1111111111 n
#491
b10100111 J
b100000000 Z
b1101011111 d
b100000000 n
#492
b10101000 J
b1111111111 Z
b110100000 d
b1111111111 n
#493
b10101001 J
b100000000 Z
b1101011111 d
b100000000 n
#494
b10101010 J
b1111111111 Z
b110100000 d
b1111111111 n
#495
b10101011 J
b100000000 Z
b100000000 n
#496
b10101100 J
b1101011111 d
#497
b10101101 J
b1111111111 Z
b110100000 d
b1111111111 n
#498
b10101110 J
b100000000 Z
b1101011111 d
b100000000 n
#499
b10101111 J
b1111111111 Z
b110100000 d
b1111111111 n
#500
b10110000 J
b100000000 Z
b100000000 n
#501
b10110001 J
b1111111111 Z
b1101011111 d
b1111111111 n
#502
b10110010 J
b100000000 Z
b110100000 d
b100000000 n
#503
b10110011 J
b1111111111 Z
b1101011111 d
b1111111111 n
#504
b10110100 J
b100000000 Z
b110100000 d
b100000000 n
#505
b10110101 J
#506
b10110110 J
b1111111111 Z
b1101011111 d
b1111111111 n
#507
b10110111 J
b100000000 Z
b110100000 d
b100000000 n
#508
b10111000 J
b1111111111 Z
b1101011111 d
b1111111111 n
#509
b10111001 J
b100000000 Z
b110100000 d
b100000000 n
#510
b10111010 J
b1111111111 Z
b1111111111 n
#511
b10111011 J
b100000000 Z
b1101011111 d
b100000000 n
#512
b10111100 J
b1111111111 Z
b110100000 d
b1111111111 n
#513
b10111101 J
b100000000 Z
b1101011111 d
b100000000 n
#514
b10111110 J
b110100000 d
#515
b10111111 J
b1111111111 Z
b1111111111 n
#516
b11000000 J
b100000000 Z
b1101011111 d
b100000000 n
#517
b11000001 J
b1111111111 Z
b110100000 d
b1111111111 n
#518
b11000010 J
b100000000 Z
b1101011111 d
b100000000 n
#519
b11000011 J
b1111111111 Z
b110100000 d
b1111111111 n
#520
b11000100 J
b100000000 Z
b100000000 n
#521
b11000101 J
b1111111111 Z
b1101011111 d
b1111111111 n
#522
b11000110 J
b100000000 Z
b110100000 d
b100000000 n
#523
b11000111 J
b1101011111 d
#524
b11001000 J
b1111111111 Z
b110100000 d
b1111111111 n
#525
b11001001 J
b100000000 Z
b100000000 n
#526
b11001010 J
b1111111111 Z
b1101011111 d
b1111111111 n
#527
b11001011 J
b100000000 Z
b110100000 d
b100000000 n
#528
b11001100 J
b1111111111 Z
b1101011111 d
b1111111111 n
#529
b11001101 J
b100000000 Z
b110100000 d
b100000000 n
#530
b11001110 J
b1111111111 Z
b1111111111 n
#531
b11001111 J
b100000000 Z
b1101011111 d
b100000000 n
#532
b11010000 J
b110100000 d
#533
b11010001 J
b1111111111 Z
b1101011111 d
b1111111111 n
#534
b11010010 J
b100000000 Z
b110100000 d
b100000000 n
#535
b11010011 J
b1111111111 Z
b1111111111 n
#536
b11010100 J
b100000000 Z
b1101011111 d
b100000000 n
#537
b11010101 J
b1111111111 Z
b110100000 d
b1111111111 n
#538
b11010110 J
b100000000 Z
b1101011111 d
b100000000 n
#539
b11010111 J
b1111111111 Z
b110100000 d
b1111111111 n
#540
b11011000 J
b100000000 Z
b100000000 n
#541
b11011001 J
b1101011111 d
#542
b11011010 J
b1111111111 Z
b110100000 d
b1111111111 n
#543
b11011011 J
b100000000 Z
b1101011111 d
b100000000 n
#544
b11011100 J
b1111111111 Z
b110100000 d
b1111111111 n
#545
b11011101 J
b100000000 Z
b100000000 n
#546
b11011110 J
b1111111111 Z
b1101011111 d
b1111111111 n
#547
b11011111 J
b100000000 Z
b110100000 d
b100000000 n
#548
b11100000 J
b1111111111 Z
b1101011111 d
b1111111111 n
#549
b11100001 J
b100000000 Z
b110100000 d
b100000000 n
#550
b11100010 J
#551
b11100011 J
b1111111111 Z
b1101011111 d
b1111111111 n
#552
b11100100 J
b100000000 Z
b110100000 d
b100000000 n
#553
b11100101 J
b1111111111 Z
b1101011111 d
b1111111111 n
#554
b11100110 J
b100000000 Z
b110100000 d
b100000000 n
#555
b11100111 J
b1111111111 Z
b1111111111 n
#556
b11101000 J
b100000000 Z
b1101011111 d
b100000000 n
#557
b11101001 J
b1111111111 Z
b110100000 d
b1111111111 n
#558
b11101010 J
b100000000 Z
b1101011111 d
b100000000 n
#559
b11101011 J
b110100000 d
#560
b11101100 J
b1111111111 Z
b1111111111 n
#561
b11101101 J
b100000000 Z
b1101011111 d
b100000000 n
#562
b11101110 J
b1111111111 Z
b110100000 d
b1111111111 n
#563
b11101111 J
b100000000 Z
b1101011111 d
b100000000 n
#564
b11110000 J
b1111111111 Z
b110100000 d
b1111111111 n
#565
b11110001 J
b100000000 Z
b100000000 n
#566
b11110010 J
b1111111111 Z
b1101011111 d
b1111111111 n
#567
b11110011 J
b100000000 Z
b110100000 d
b100000000 n
#568
b11110100 J
b1101011111 d
#569
b11110101 J
b1111111111 Z
b110100000 d
b1111111111 n
#570
b11110110 J
b100000000 Z
b100000000 n
#571
b11110111 J
b1111111111 Z
b1101011111 d
b1111111111 n
#572
b11111000 J
b100000000 Z
b110100000 d
b100000000 n
#573
b11111001 J
b1111111111 Z
b1101011111 d
b1111111111 n
#574
b11111010 J
b100000000 Z
b110100000 d
b100000000 n
#575
b11111011 J
b1111111111 Z
b1111111111 n
#576
b11111100 J
b100000000 Z
b1101011111 d
b100000000 n
#577
b11111101 J
b110100000 d
#578
b11111110 J
b1111111111 Z
b1101011111 d
b1111111111 n
#579
b11111111 J
b100000000 Z
b110100000 d
b100000000 n
#580
b100000000 J
b1111111111 Z
b1111111111 n
#581
b100000001 J
b100000000 Z
b1101011111 d
b100000000 n
#582
b100000010 J
b1111111111 Z
b110100000 d
b1111111111 n
#583
b100000011 J
b100000000 Z
b1101011111 d
b100000000 n
#584
b100000100 J
b1111111111 Z
b110100000 d
b1111111111 n
#585
b100000101 J
b100000000 Z
b100000000 n
#586
b100000110 J
b1101011111 d
#587
b100000111 J
b1111111111 Z
b110100000 d
b1111111111 n
#588
b100001000 J
b100000000 Z
b1101011111 d
b100000000 n
#589
b100001001 J
b1111111111 Z
b110100000 d
b1111111111 n
#590
b100001010 J
b100000000 Z
b100000000 n
#591
b100001011 J
b1111111111 Z
b1101011111 d
b1111111111 n
#592
b100001100 J
b100000000 Z
b110100000 d
b100000000 n
#593
b100001101 J
b1111111111 Z
b1101011111 d
b1111111111 n
#594
b100001110 J
b100000000 Z
b110100000 d
b100000000 n
#595
b100001111 J
#596
b100010000 J
b1111111111 Z
b1101011111 d
b1111111111 n
#597
b100010001 J
b100000000 Z
b110100000 d
b100000000 n
#598
b100010010 J
b1111111111 Z
b1101011111 d
b1111111111 n
#599
b100010011 J
b100000000 Z
b110100000 d
b100000000 n
#600
b100010100 J
b1111111111 Z
b1111111111 n
#601
b100010101 J
b100000000 Z
b1101011111 d
b100000000 n
#602
b100010110 J
b1111111111 Z
b110100000 d
b1111111111 n
#603
b100010111 J
b100000000 Z
b1101011111 d
b100000000 n
#604
b100011000 J
b110100000 d
#605
b100011001 J
b1111111111 Z
b1111111111 n
#606
b100011010 J
b100000000 Z
b1101011111 d
b100000000 n
#607
b100011011 J
b1111111111 Z
b110100000 d
b1111111111 n
#608
b100011100 J
b100000000 Z
b1101011111 d
b100000000 n
#609
b100011101 J
b1111111111 Z
b110100000 d
b1111111111 n
#610
b100011110 J
b100000000 Z
b100000000 n
#611
b100011111 J
b1111111111 Z
b1101011111 d
b1111111111 n
#612
b100100000 J
b100000000 Z
b110100000 d
b100000000 n
#613
b100100001 J
b1101011111 d
#614
b100100010 J
b1111111111 Z
b110100000 d
b1111111111 n
#615
b100100011 J
b100000000 Z
b100000000 n
#616
b100100100 J
b1111111111 Z
b1101011111 d
b1111111111 n
#617
b100100101 J
b100000000 Z
b110100000 d
b100000000 n
#618
b100100110 J
b1111111111 Z
b1101011111 d
b1111111111 n
#619
b100100111 J
b100000000 Z
b110100000 d
b100000000 n
#620
b100101000 J
b1111111111 Z
b1111111111 n
#621
b100101001 J
b100000000 Z
b1101011111 d
b100000000 n
#622
b100101010 J
b110100000 d
#623
b100101011 J
b1111111111 Z
b1101011111 d
b1111111111 n
#624
b100101100 J
b100000000 Z
b110100000 d
b100000000 n
#625
b100101101 J
b1111111111 Z
b1111111111 n
#626
b100101110 J
b100000000 Z
b1101011111 d
b100000000 n
#627
b100101111 J
b1111111111 Z
b110100000 d
b1111111111 n
#628
b100110000 J
b100000000 Z
b1101011111 d
b100000000 n
#629
b100110001 J
b1111111111 Z
b110100000 d
b1111111111 n
#630
b100110010 J
b100000000 Z
b100000000 n
#631
b100110011 J
b1101011111 d
#632
b100110100 J
b1111111111 Z
b110100000 d
b1111111111 n
#633
b100110101 J
b100000000 Z
b1101011111 d
b100000000 n
#634
b100110110 J
b1111111111 Z
b110100000 d
b1111111111 n
#635
b100110111 J
b100000000 Z
b100000000 n
#636
b100111000 J
b1111111111 Z
b1101011111 d
b1111111111 n
#637
b100111001 J
b100000000 Z
b110100000 d
b100000000 n
#638
b100111010 J
b1111111111 Z
b1101011111 d
b1111111111 n
#639
b100111011 J
b100000000 Z
b110100000 d
b100000000 n
#640
b100111100 J
#641
b100111101 J
b1111111111 Z
b1101011111 d
b1111111111 n
#642
b100111110 J
b100000000 Z
b110100000 d
b100000000 n
#643
b100111111 J
b1111111111 Z
b1101011111 d
b1111111111 n
#644
b101000000 J
b100000000 Z
b110100000 d
b100000000 n
#645
b101000001 J
b1111111111 Z
b1111111111 n
#646
b101000010 J
b100000000 Z
b1101011111 d
b100000000 n
#647
b101000011 J
b1111111111 Z
b110100000 d
b1111111111 n
#648
b101000100 J
b100000000 Z
b1101011111 d
b100000000 n
#649
b101000101 J
b110100000 d
#650
b101000110 J
b1111111111 Z
b1111111111 n
#651
b101000111 J
b100000000 Z
b1101011111 d
b100000000 n
#652
b101001000 J
b1111111111 Z
b110100000 d
b1111111111 n
#653
b101001001 J
b100000000 Z
b1101011111 d
b100000000 n
#654
b101001010 J
b1111111111 Z
b110100000 d
b1111111111 n
#655
b101001011 J
b100000000 Z
b100000000 n
#656
b101001100 J
b1111111111 Z
b1101011111 d
b1111111111 n
#657
b101001101 J
b100000000 Z
b110100000 d
b100000000 n
#658
b101001110 J
b1101011111 d
#659
b101001111 J
b1111111111 Z
b110100000 d
b1111111111 n
#660
b101010000 J
b100000000 Z
b100000000 n
#661
b101010001 J
b1111111111 Z
b1101011111 d
b1111111111 n
#662
b101010010 J
b100000000 Z
b110100000 d
b100000000 n
#663
b101010011 J
b1111111111 Z
b1101011111 d
b1111111111 n
#664
b101010100 J
b100000000 Z
b110100000 d
b100000000 n
#665
b101010101 J
b1111111111 Z
b1111111111 n
#666
b101010110 J
b100000000 Z
b1101011111 d
b100000000 n
#667
b101010111 J
b110100000 d
#668
b11100000 "
b11100000 2
b101011000 J
b1111111111 Z
b1101011111 d
b1111111111 n
